traffic/trafficbench.vcd
$date
  Mon Oct  2 16:55:57 2023
$end
$version
  GHDL v0
$end
$timescale
  1 fs
$end
$scope module standard $end
$upscope $end
$scope module std_logic_1164 $end
$upscope $end
$scope module numeric_std $end
$upscope $end
$scope module trafficbench $end
$var reg 1 ! clk $end
$var reg 1 " enable $end
$var reg 1 # reset $end
$var reg 1 $ nsred $end
$var reg 1 % nsyellow $end
$var reg 1 & nsgreen $end
$var reg 1 ' ewred $end
$var reg 1 ( ewyellow $end
$var reg 1 ) ewgreen $end
$scope module l0 $end
$var reg 1 * reset $end
$var reg 1 + clk $end
$var reg 1 , enable $end
$var reg 1 - nsred $end
$var reg 1 . nsgreen $end
$var reg 1 / nsyellow $end
$var reg 1 0 ewred $end
$var reg 1 1 ewgreen $end
$var reg 1 2 ewyellow $end
$var reg 1 3 a $end
$var reg 1 4 b $end
$var reg 1 5 c $end
$var reg 1 6 d $end
$var reg 1 7 na $end
$var reg 1 8 nb $end
$var reg 1 9 nc $end
$var reg 1 : nd $end
$var reg 4 ; q[3:0] $end
$var reg 1 < synthesized_wire_0 $end
$var reg 1 = synthesized_wire_1 $end
$var reg 1 > synthesized_wire_2 $end
$var reg 1 ? synthesized_wire_3 $end
$var reg 1 @ synthesized_wire_4 $end
$var reg 1 A synthesized_wire_5 $end
$var reg 1 B synthesized_wire_6 $end
$var reg 1 C synthesized_wire_7 $end
$var reg 1 D synthesized_wire_8 $end
$var reg 1 E synthesized_wire_9 $end
$var reg 1 F synthesized_wire_10 $end
$var reg 1 G synthesized_wire_11 $end
$scope module b2v_inst $end
$var reg 1 H clk $end
$var reg 1 I reset $end
$var reg 1 J enable $end
$var reg 4 K q[3:0] $end
$var reg 4 L cnt[3:0] $end
$upscope $end
$upscope $end
$upscope $end
$enddefinitions $end
#0
0!
1"
1#
U$
U%
U&
U'
U(
U)
1*
0+
1,
U-
U.
U/
U0
U1
U2
U3
U4
U5
U6
U7
U8
U9
U:
bUUUU ;
U<
U=
U>
U?
U@
UA
UB
UC
UD
UE
UF
UG
0H
1I
1J
b0000 K
b0000 L
#5000000
1!
0#
0*
1+
1H
0I
b0001 K
b0001 L
#10000000
0!
0+
0H
#15000000
1!
1+
1H
b0010 K
b0010 L
#20000000
0!
0+
0H
#25000000
1!
1+
1H
b0011 K
b0011 L
#30000000
0!
0+
0H
#35000000
1!
1+
1H
b0100 K
b0100 L
#40000000
0!
0+
0H
#45000000
1!
1+
1H
b0101 K
b0101 L
#50000000
0!
0+
0H
#55000000
1!
1+
1H
b0110 K
b0110 L
#60000000
0!
0+
0H
#65000000
1!
1+
1H
b0111 K
b0111 L
#70000000
0!
0+
0H
#75000000
1!
1+
1H
b1000 K
b1000 L
#80000000
0!
0+
0H
#85000000
1!
1+
1H
b1001 K
b1001 L
#90000000
0!
0+
0H
#95000000
1!
1+
1H
b1010 K
b1010 L
#100000000
0!
0+
0H
#105000000
1!
1+
1H
b1011 K
b1011 L
#110000000
0!
0+
0H
#115000000
1!
1+
1H
b1100 K
b1100 L
#120000000
0!
0+
0H
#125000000
1!
1+
1H
b1101 K
b1101 L
#130000000
0!
0+
0H
#135000000
1!
1+
1H
b1110 K
b1110 L
#140000000
0!
0+
0H
#145000000
1!
1+
1H
b1111 K
b1111 L
#150000000
0!
0+
0H
#155000000
1!
1+
1H
b0000 K
b0000 L
